Metro Nashville Calls for Service
…
# calls by Tencode
cfs_TCA <- cfs %>%
  mutate(months = paste0(year, "-", month, "-01")) %>%
  group_by(Tencode.Description, months) %>%
  summarise(count = n())

## `summarise()` has grouped output by 'Tencode.Description'. You can override using the `.groups` argument.

cfs_TCA$months <- as.Date(cfs_TCA$months, format = "%Y-%m-%d")

cfs_TCA

## # A tibble: 3,931 x 3
## # Groups:   Tencode.Description [52]
##    Tencode.Description months     count
##    <fct>               <date>     <int>
##  1 ""                  2015-01-01  1586
##  2 ""                  2015-10-01  1593
##  3 ""                  2015-11-01  1413
##  4 ""                  2015-12-01  1633
##  5 ""                  2015-02-01  1473
##  6 ""                  2015-03-01  1573
##  7 ""                  2015-04-01  1693
##  8 ""                  2015-05-01  1759
##  9 ""                  2015-06-01  1728
## 10 ""                  2015-07-01  1456
## # ... with 3,921 more rows
…
TCA_top_10 <- c("WANT OFFICER FOR INVESTIGATION / ASSISTA", "BUSINESS CHECK", "TRAFFIC VIOLATION", "COMMUNITY POLICING ACTIVITY", "DISORDERLY PERSON", "VEHICLE ACCIDENT - PROPERTY DAMAGE", "THEFT", "SAFETY HAZARD", "SUSPICIOUS PERSON", "BURGLARY - RESIDENCE")

cfs_TCA_top <- cfs_TCA %>%
  filter(Tencode.Description %in% TCA_top_10) %>%
  arrange(months)
  
cfs_TCA_top

## # A tibble: 850 x 3
## # Groups:   Tencode.Description [10]
##    Tencode.Description                      months     count
##    <fct>                                    <date>     <int>
##  1 BURGLARY - RESIDENCE                     2015-01-01  2511
##  2 BUSINESS CHECK                           2015-01-01 20022
##  3 COMMUNITY POLICING ACTIVITY              2015-01-01  4750
##  4 DISORDERLY PERSON                        2015-01-01  2562
##  5 SAFETY HAZARD                            2015-01-01  2553
##  6 SUSPICIOUS PERSON                        2015-01-01  3134
##  7 THEFT                                    2015-01-01  2476
##  8 TRAFFIC VIOLATION                        2015-01-01 36564
##  9 VEHICLE ACCIDENT - PROPERTY DAMAGE       2015-01-01  2995
## 10 WANT OFFICER FOR INVESTIGATION / ASSISTA 2015-01-01 15053
## # ... with 840 more rows
…
